Introduction to Geometric Predicates and Operators
…
---

## Using with dplyr with spatial data (Part 1)

```r
ws %>% 
  filter(FEATURE_AREA_SQM > 1E10) %>%  ## >10000 KM^2
  select(SUB_SUB_DRAINAGE_AREA_NAME)
#> Simple feature collection with 67 features and 1 field
#> geometry type:  GEOMETRY
#> dimension:      XY
#> bbox:           xmin: 275942.4 ymin: 464442.4 xmax: 1809296 ymax: 1735252
#> projected CRS:  NAD83 / BC Albers
#> # A tibble: 67 x 2
#>    SUB_SUB_DRAINAGE_AREA_NAME                                                     geometry
#>    <chr>                                                                    <GEOMETRY [m]>
#>  1 Lower Skeena               POLYGON ((688416.6 1059663, 688225.2 1059655, 687998.7 1059~
#>  2 Lower Skeena               MULTIPOLYGON (((693364.6 1056285, 693207.6 1056269, 692941.~
#>  3 Lower Skeena               POLYGON ((694600.1 1049864, 694576.7 1049852, 694504.3 1049~
#>  4 Lower Skeena               MULTIPOLYGON (((722306.2 1036710, 722234.2 1037155, 721852.~
#>  5 Lower Skeena               POLYGON ((714305.3 1036082, 714203.5 1036084, 713569 103609~
#>  6 Lower Skeena               MULTIPOLYGON (((694671.8 1021937, 694645.9 1021967, 694288.~
#>  7 Lower Skeena               POLYGON ((726556.7 1020707, 726449.1 1020653, 726039 102044~
#>  8 Lower Skeena               MULTIPOLYGON (((700695.8 1017550, 700512.2 1017496, 700360.~
#>  9 Southern Williston Lake -~ POLYGON ((1244186 1060040, 1244185 1060039, 1244158 1060015~
#> 10 Upper Peace - Kiskatinaw   POLYGON ((1378421 1175096, 1378333 1175080, 1378362 1174740~
#> # ... with 57 more rows
```
…
.pull-left[

```r
lower_fraser_lines <- lines %>% 
  st_intersection(lower_fraser)
```

```
#> Simple feature collection with 173 features and 24 fields
#> geometry type:  GEOMETRY
#> dimension:      XY
#> bbox:           xmin: 1203348 ymin: 447879.6 xmax: 1292417 ymax: 490817.7
#> projected CRS:  NAD83 / BC Albers
#> # A tibble: 173 x 25
#>    id    TRANSMISSION_LI~ CIRCUIT_NAME CIRCUIT_DESCRIP~ VOLTAGE OWNER SOURCE_DATE
#>  * <chr>            <int> <chr>        <chr>            <chr>   <chr> <date>     
#>  1 WHSE~              307 <NA>         <NA>             <NA>    Unkn~ 2016-12-14 
#>  2 WHSE~              591 60L060       NEL - Newell ->~ <NA>    <NA>  2018-12-18 
#>  3 WHSE~              620 5L041        KLY - Kelly Lak~ <NA>    <NA>  2018-12-18 
#>  4 WHSE~              624 5L081        NIC - Nicola ->~ <NA>    <NA>  2018-12-18 
#>  5 WHSE~              629 60L015       SFL - Stave Fal~ <NA>    <NA>  2018-12-18 
#>  6 WHSE~              606 5L052        ING - Ingledow ~ <NA>    <NA>  2018-12-18 
#>  7 WHSE~              607 5L051        ING - Ingledow ~ <NA>    <NA>  2018-12-18 
#>  8 WHSE~              608 2L077        CBN - Clayburn ~ <NA>    <NA>  2018-12-18 
#>  9 WHSE~              609 2L078        ALZ - Atchelitz~ <NA>    <NA>  2018-12-18 
#> 10 WHSE~              612 5L045        CKY - Cheekye -~ <NA>    <NA>  2018-12-18 
#> # ... with 163 more rows, and 18 more variables: FEATURE_LENGTH_M <dbl>, OBJECTID <int>,
#> #   SE_ANNO_CAD_DATA <chr>, id.1 <chr>, SUB_SUB_DRAINAGE_1M_ID <int>,
#> #   SUB_SUB_DRAINAGE_AREA_CD <chr>, SUB_SUB_DRAINAGE_AREA_NAME <chr>,
#> #   SUB_DRAINAGE_AREA_CD <chr>, SUB_DRAINAGE_AREA_NAME <chr>,
#> #   MAJOR_DRAINAGE_AREA_CD <chr>, MAJOR_DRAINAGE_AREA_NAME <chr>,
#> #   OCEAN_DRAINAGE_AREA_NAME <chr>, FEATURE_AREA_SQM <dbl>, FEATURE_LENGTH_M.1 <dbl>,
#> #   OBJECTID.1 <int>, SE_ANNO_CAD_DATA.1 <chr>, island <chr>, geometry <LINESTRING [m]>
```
…
.pull-left[

```r
ws
```

```
#> Simple feature collection with 289 features and 1 field
#> geometry type:  GEOMETRY
#> dimension:      XY
#> bbox:           xmin: 275942.4 ymin: 368917.1 xmax: 1867410 ymax: 1735252
#> projected CRS:  NAD83 / BC Albers
#> # A tibble: 289 x 2
#>    SUB_SUB_DRAINAGE_AREA_~                                                        geometry
#>    <chr>                                                                    <GEOMETRY [m]>
#>  1 Lower Nass              POLYGON ((682242.6 1075371, 682252.8 1075385, 682254.2 1075411~
#>  2 Lower Skeena            POLYGON ((688416.6 1059663, 688225.2 1059655, 687998.7 1059800~
#>  3 Lower Skeena            MULTIPOLYGON (((693364.6 1056285, 693207.6 1056269, 692941.5 1~
#>  4 Lower Skeena            POLYGON ((694600.1 1049864, 694576.7 1049852, 694504.3 1049818~
#>  5 Graham Island           POLYGON ((544481.3 1043611, 544556.3 1043847, 545302.5 1044235~
#>  6 Lower Skeena            MULTIPOLYGON (((722306.2 1036710, 722234.2 1037155, 721852.5 1~
#>  7 Lower Skeena            POLYGON ((714305.3 1036082, 714203.5 1036084, 713569 1036093, ~
#>  8 Graham Island           MULTIPOLYGON (((539643.7 1032990, 539785.3 1033040, 540216.3 1~
#>  9 Moresby Island          POLYGON ((587567.1 922377.7, 587598.3 922399.5, 587617.5 92238~
#> 10 Lower Skeena            MULTIPOLYGON (((694671.8 1021937, 694645.9 1021967, 694288.9 1~
#> # ... with 279 more rows
```
…
.pull-left[

```r
ws
```

```
#> Simple feature collection with 289 features and 1 field
#> geometry type:  GEOMETRY
#> dimension:      XY
#> bbox:           xmin: 275942.4 ymin: 368917.1 xmax: 1867410 ymax: 1735252
#> projected CRS:  NAD83 / BC Albers
#> # A tibble: 289 x 2
#>    SUB_SUB_DRAINAGE_AREA_~                                                        geometry
#>    <chr>                                                                    <GEOMETRY [m]>
#>  1 Lower Nass              POLYGON ((682242.6 1075371, 682252.8 1075385, 682254.2 1075411~
#>  2 Lower Skeena            POLYGON ((688416.6 1059663, 688225.2 1059655, 687998.7 1059800~
#>  3 Lower Skeena            MULTIPOLYGON (((693364.6 1056285, 693207.6 1056269, 692941.5 1~
#>  4 Lower Skeena            POLYGON ((694600.1 1049864, 694576.7 1049852, 694504.3 1049818~
#>  5 Graham Island           POLYGON ((544481.3 1043611, 544556.3 1043847, 545302.5 1044235~
#>  6 Lower Skeena            MULTIPOLYGON (((722306.2 1036710, 722234.2 1037155, 721852.5 1~
#>  7 Lower Skeena            POLYGON ((714305.3 1036082, 714203.5 1036084, 713569 1036093, ~
#>  8 Graham Island           MULTIPOLYGON (((539643.7 1032990, 539785.3 1033040, 540216.3 1~
#>  9 Moresby Island          POLYGON ((587567.1 922377.7, 587598.3 922399.5, 587617.5 92238~
#> 10 Lower Skeena            MULTIPOLYGON (((694671.8 1021937, 694645.9 1021967, 694288.9 1~
#> # ... with 279 more rows
```
…
.pull-left[

```r
ws_summarised <- ws %>% 
  group_by(SUB_DRAINAGE_AREA_NAME) %>% 
  summarise()
```

```
#> Simple feature collection with 30 features and 1 field
#> geometry type:  GEOMETRY
#> dimension:      XY
#> bbox:           xmin: 275942.4 ymin: 368917.1 xmax: 1867410 ymax: 1735252
#> projected CRS:  NAD83 / BC Albers
#> # A tibble: 30 x 2
#>    SUB_DRAINAGE_AREA_NAME                                                         geometry
#>    <chr>                                                                    <GEOMETRY [m]>
#>  1 Alsek                     MULTIPOLYGON (((340223 1600644, 342546.7 1600390, 342546.7 1~
#>  2 Bow                       MULTIPOLYGON (((1802516 635700.6, 1802475 635681.5, 1802414 ~
#>  3 Central Coastal Waters o~ MULTIPOLYGON (((857552.4 753876.9, 857461.4 754103.6, 857510~
#>  4 Central Liard             POLYGON ((904634.2 1486017, 904510.1 1485947, 904395.4 14858~
#>  5 Central Liard - Petitot   POLYGON ((1340147 1625597, 1340062 1625592, 1339885 1625606,~
#>  6 Columbia - U.S.A.         POLYGON ((1376860 456393.7, 1376893 456458.2, 1376982 456583~
#>  7 Fort Nelson               POLYGON ((1234085 1380780, 1234062 1380772, 1233823 1380739,~
#>  8 Hay                       MULTIPOLYGON (((1361450 1374854, 1361322 1375278, 1361317 13~
#>  9 Headwaters Yukon          POLYGON ((725553.3 1678066, 725554.7 1678061, 725562.5 16780~
#> 10 Lower Fraser              MULTIPOLYGON (((1213627 459566.1, 1211284 459178.3, 1209594 ~
#> # ... with 20 more rows
```
…
